{"items":[{"external_urls":{"spotify":"https://open.spotify.com/artist/06HL4z0CvFAxyc27GXpf02"},"followers":{"href":null,"total":67288067},"genres":["pop"],"href":"https://api.spotify.com/v1/artists/06HL4z0CvFAxyc27GXpf02","id":"06HL4z0CvFAxyc27GXpf02","images":[{"height":640,"url":"https://i.scdn.co/image/ab6761610000e5eb5a00969a4698c3132a15fbb0","width":640},{"height":320,"url":"https://i.scdn.co/image/ab676161000051745a00969a4698c3132a15fbb0","width":320},{"height":160,"url":"https://i.scdn.co/image/ab6761610000f1785a00969a4698c3132a15fbb0","width":160}],"name":"Taylor Swift","popularity":99,"type":"artist","uri":"spotify:artist:06HL4z0CvFAxyc27GXpf02"},{"external_urls":{"spotify":"https://open.spotify.com/artist/1McMsnEElThX1knmY4oliG"},"followers":{"href":null,"total":23859214},"genres":["pop"],"href":"https://api.spotify.com/v1/artists/1McMsnEElThX1knmY4oliG","id":"1McMsnEElThX1knmY4oliG","images":[{"height":640,"url":"https://i.scdn.co/image/ab6761610000e5ebee954a3b5418065c2fe253fb","width":640},{"height":320,"url":"https://i.scdn.co/image/ab67616100005174ee954a3b5418065c2fe253fb","width":320},{"height":160,"url":"https://i.scdn.co/image/ab6761610000f178ee954a3b5418065c2fe253fb","width":160}],"name":"Olivia Rodrigo","popularity":85,"type":"artist","uri":"spotify:artist:1McMsnEElThX1knmY4oliG"},{"external_urls":{"spotify":"https://open.spotify.com/artist/1wRPtKGflJrBx9BmLsSwlU"},"followers":{"href":null,"total":11144382},"genres":["filmi","indian instrumental","modern bollywood"],"href":"https://api.spotify.com/v1/artists/1wRPtKGflJrBx9BmLsSwlU","id":"1wRPtKGflJrBx9BmLsSwlU","images":[{"height":640,"url":"https://i.scdn.co/image/ab6761610000e5ebcb6926f44f620555ba444fca","width":640},{"height":320,"url":"https://i.scdn.co/image/ab67616100005174cb6926f44f620555ba444fca","width":320},{"height":160,"url":"https://i.scdn.co/image/ab6761610000f178cb6926f44f620555ba444fca","width":160}],"name":"Pritam","popularity":88,"type":"artist","uri":"spotify:artist:1wRPtKGflJrBx9BmLsSwlU"},{"external_urls":{"spotify":"https://open.spotify.com/artist/3YQKmKGau1PzlVlkL1iodx"},"followers":{"href":null,"total":23189888},"genres":["modern rock","rock"],"href":"https://api.spotify.com/v1/artists/3YQKmKGau1PzlVlkL1iodx","id":"3YQKmKGau1PzlVlkL1iodx","images":[{"height":640,"url":"https://i.scdn.co/image/ab6761610000e5eb196972172c37d934d9ca8093","width":640},{"height":320,"url":"https://i.scdn.co/image/ab67616100005174196972172c37d934d9ca8093","width":320},{"height":160,"url":"https://i.scdn.co/image/ab6761610000f178196972172c37d934d9ca8093","width":160}],"name":"Twenty One Pilots","popularity":81,"type":"artist","uri":"spotify:artist:3YQKmKGau1PzlVlkL1iodx"},{"external_urls":{"spotify":"https://open.spotify.com/artist/6Mv8GjQa7LKUGCAqa9qqdb"},"followers":{"href":null,"total":3373437},"genres":["desi pop","filmi","modern bollywood"],"href":"https://api.spotify.com/v1/artists/6Mv8GjQa7LKUGCAqa9qqdb","id":"6Mv8GjQa7LKUGCAqa9qqdb","images":[{"height":640,"url":"https://i.scdn.co/image/ab6761610000e5eb90b6c3d093f9b02aad628eaf","width":640},{"height":320,"url":"https://i.scdn.co/image/ab6761610000517490b6c3d093f9b02aad628eaf","width":320},{"height":160,"url":"https://i.scdn.co/image/ab6761610000f17890b6c3d093f9b02aad628eaf","width":160}],"name":"Vishal-Shekhar","popularity":79,"type":"artist","uri":"spotify:artist:6Mv8GjQa7LKUGCAqa9qqdb"},{"external_urls":{"spotify":"https://open.spotify.com/artist/5XKFrudbV4IiuE5WuTPRmT"},"followers":{"href":null,"total":437341},"genres":["gen z singer-songwriter","pop"],"href":"https://api.spotify.com/v1/artists/5XKFrudbV4IiuE5WuTPRmT","id":"5XKFrudbV4IiuE5WuTPRmT","images":[{"height":640,"url":"https://i.scdn.co/image/ab6761610000e5eb1e97fce6fa6fc4ebc3ebda25","width":640},{"height":320,"url":"https://i.scdn.co/image/ab676161000051741e97fce6fa6fc4ebc3ebda25","width":320},{"height":160,"url":"https://i.scdn.co/image/ab6761610000f1781e97fce6fa6fc4ebc3ebda25","width":160}],"name":"Stephen Sanchez","popularity":81,"type":"artist","uri":"spotify:artist:5XKFrudbV4IiuE5WuTPRmT"},{"external_urls":{"spotify":"https://open.spotify.com/artist/4fEkbug6kZzzJ8eYX6Kbbp"},"followers":{"href":null,"total":9718875},"genres":["desi pop","filmi","modern bollywood"],"href":"https://api.spotify.com/v1/artists/4fEkbug6kZzzJ8eYX6Kbbp","id":"4fEkbug6kZzzJ8eYX6Kbbp","images":[{"height":640,"url":"https://i.scdn.co/image/ab6761610000e5ebb09a31f853166e721d4d46b2","width":640},{"height":320,"url":"https://i.scdn.co/image/ab67616100005174b09a31f853166e721d4d46b2","width":320},{"height":160,"url":"https://i.scdn.co/image/ab6761610000f178b09a31f853166e721d4d46b2","width":160}],"name":"KK","popularity":77,"type":"artist","uri":"spotify:artist:4fEkbug6kZzzJ8eYX6Kbbp"},{"external_urls":{"spotify":"https://open.spotify.com/artist/66CXWjxzNUsdJxJ2JdwvnR"},"followers":{"href":null,"total":87522190},"genres":["dance pop","pop"],"href":"https://api.spotify.com/v1/artists/66CXWjxzNUsdJxJ2JdwvnR","id":"66CXWjxzNUsdJxJ2JdwvnR","images":[{"height":640,"url":"https://i.scdn.co/image/ab6761610000e5ebcdce7620dc940db079bf4952","width":640},{"height":320,"url":"https://i.scdn.co/image/ab67616100005174cdce7620dc940db079bf4952","width":320},{"height":160,"url":"https://i.scdn.co/image/ab6761610000f178cdce7620dc940db079bf4952","width":160}],"name":"Ariana Grande","popularity":91,"type":"artist","uri":"spotify:artist:66CXWjxzNUsdJxJ2JdwvnR"},{"external_urls":{"spotify":"https://open.spotify.com/artist/53XhwfbYqKCa1cC15pYq2q"},"followers":{"href":null,"total":45361497},"genres":["modern rock","rock"],"href":"https://api.spotify.com/v1/artists/53XhwfbYqKCa1cC15pYq2q","id":"53XhwfbYqKCa1cC15pYq2q","images":[{"height":640,"url":"https://i.scdn.co/image/ab6761610000e5eb920dc1f617550de8388f368e","width":640},{"height":320,"url":"https://i.scdn.co/image/ab67616100005174920dc1f617550de8388f368e","width":320},{"height":160,"url":"https://i.scdn.co/image/ab6761610000f178920dc1f617550de8388f368e","width":160}],"name":"Imagine Dragons","popularity":90,"type":"artist","uri":"spotify:artist:53XhwfbYqKCa1cC15pYq2q"},{"external_urls":{"spotify":"https://open.spotify.com/artist/7HCqGPJcQTyGJ2yqntbuyr"},"followers":{"href":null,"total":6556952},"genres":["desi pop","filmi","modern bollywood"],"href":"https://api.spotify.com/v1/artists/7HCqGPJcQTyGJ2yqntbuyr","id":"7HCqGPJcQTyGJ2yqntbuyr","images":[{"height":640,"url":"https://i.scdn.co/image/ab6761610000e5eb1dcbb331f2318db2dd2c6bcf","width":640},{"height":320,"url":"https://i.scdn.co/image/ab676161000051741dcbb331f2318db2dd2c6bcf","width":320},{"height":160,"url":"https://i.scdn.co/image/ab6761610000f1781dcbb331f2318db2dd2c6bcf","width":160}],"name":"Amit Trivedi","popularity":75,"type":"artist","uri":"spotify:artist:7HCqGPJcQTyGJ2yqntbuyr"},{"external_urls":{"spotify":"https://open.spotify.com/artist/7n2wHs1TKAczGzO7Dd2rGr"},"followers":{"href":null,"total":40723423},"genres":["canadian pop","dance pop","pop","viral pop"],"href":"https://api.spotify.com/v1/artists/7n2wHs1TKAczGzO7Dd2rGr","id":"7n2wHs1TKAczGzO7Dd2rGr","images":[{"height":640,"url":"https://i.scdn.co/image/ab6761610000e5eb46e7a06fa6dfefaed6a3f0db","width":640},{"height":320,"url":"https://i.scdn.co/image/ab6761610000517446e7a06fa6dfefaed6a3f0db","width":320},{"height":160,"url":"https://i.scdn.co/image/ab6761610000f17846e7a06fa6dfefaed6a3f0db","width":160}],"name":"Shawn Mendes","popularity":86,"type":"artist","uri":"spotify:artist:7n2wHs1TKAczGzO7Dd2rGr"},{"external_urls":{"spotify":"https://open.spotify.com/artist/7oPftvlwr6VrsViSDV7fJY"},"followers":{"href":null,"total":13761157},"genres":["permanent wave","punk"],"href":"https://api.spotify.com/v1/artists/7oPftvlwr6VrsViSDV7fJY","id":"7oPftvlwr6VrsViSDV7fJY","images":[{"height":640,"url":"https://i.scdn.co/image/ab6761610000e5eb047eac333eff0be4abe32cbf","width":640},{"height":320,"url":"https://i.scdn.co/image/ab67616100005174047eac333eff0be4abe32cbf","width":320},{"height":160,"url":"https://i.scdn.co/image/ab6761610000f178047eac333eff0be4abe32cbf","width":160}],"name":"Green Day","popularity":81,"type":"artist","uri":"spotify:artist:7oPftvlwr6VrsViSDV7fJY"},{"external_urls":{"spotify":"https://open.spotify.com/artist/3AQRLZ9PuTAozP28Skbq8V"},"followers":{"href":null,"total":7709337},"genres":["celtic rock","dance pop","neo mellow","pop","pop rock"],"href":"https://api.spotify.com/v1/artists/3AQRLZ9PuTAozP28Skbq8V","id":"3AQRLZ9PuTAozP28Skbq8V","images":[{"height":640,"url":"https://i.scdn.co/image/ab6761610000e5ebf01bf904b446e4a043acb867","width":640},{"height":320,"url":"https://i.scdn.co/image/ab67616100005174f01bf904b446e4a043acb867","width":320},{"height":160,"url":"https://i.scdn.co/image/ab6761610000f178f01bf904b446e4a043acb867","width":160}],"name":"The Script","popularity":75,"type":"artist","uri":"spotify:artist:3AQRLZ9PuTAozP28Skbq8V"},{"external_urls":{"spotify":"https://open.spotify.com/artist/3OLGltG8UPIea8sA4w0yg0"},"followers":{"href":null,"total":12991493},"genres":["classic pakistani pop","filmi","modern bollywood","qawwali","sufi"],"href":"https://api.spotify.com/v1/artists/3OLGltG8UPIea8sA4w0yg0","id":"3OLGltG8UPIea8sA4w0yg0","images":[{"height":640,"url":"https://i.scdn.co/image/ab6761610000e5ebac45eaf028dc58810df0f382","width":640},{"height":320,"url":"https://i.scdn.co/image/ab67616100005174ac45eaf028dc58810df0f382","width":320},{"height":160,"url":"https://i.scdn.co/image/ab6761610000f178ac45eaf028dc58810df0f382","width":160}],"name":"Rahat Fateh Ali Khan","popularity":74,"type":"artist","uri":"spotify:artist:3OLGltG8UPIea8sA4w0yg0"},{"external_urls":{"spotify":"https://open.spotify.com/artist/1mYsTxnqsietFxj1OgoGbG"},"followers":{"href":null,"total":29482509},"genres":["filmi","modern bollywood"],"href":"https://api.spotify.com/v1/artists/1mYsTxnqsietFxj1OgoGbG","id":"1mYsTxnqsietFxj1OgoGbG","images":[{"height":640,"url":"https://i.scdn.co/image/ab6761610000e5ebb19af0ea736c6228d6eb539c","width":640},{"height":320,"url":"https://i.scdn.co/image/ab67616100005174b19af0ea736c6228d6eb539c","width":320},{"height":160,"url":"https://i.scdn.co/image/ab6761610000f178b19af0ea736c6228d6eb539c","width":160}],"name":"A.R. Rahman","popularity":81,"type":"artist","uri":"spotify:artist:1mYsTxnqsietFxj1OgoGbG"},{"external_urls":{"spotify":"https://open.spotify.com/artist/4AK6F7OLvEQ5QYCBNiQWHq"},"followers":{"href":null,"total":29328279},"genres":["boy band","pop","post-teen pop","talent show"],"href":"https://api.spotify.com/v1/artists/4AK6F7OLvEQ5QYCBNiQWHq","id":"4AK6F7OLvEQ5QYCBNiQWHq","images":[{"height":1000,"url":"https://i.scdn.co/image/5bb443424a1ad71603c43d67f5af1a04da6bb3c8","width":1000},{"height":640,"url":"https://i.scdn.co/image/289c7f686f5b78ceeb224453cf9a15697a678a79","width":640},{"height":200,"url":"https://i.scdn.co/image/45741ba38b51130bb96e00c0e24d17ba311a9293","width":200},{"height":64,"url":"https://i.scdn.co/image/6c89c662ad0ab75bc2af9a3ae2b16f811daced50","width":64}],"name":"One Direction","popularity":87,"type":"artist","uri":"spotify:artist:4AK6F7OLvEQ5QYCBNiQWHq"},{"external_urls":{"spotify":"https://open.spotify.com/artist/61if35zz1W11GejEkxTLEQ"},"followers":{"href":null,"total":3602926},"genres":["desi pop","filmi","modern bollywood"],"href":"https://api.spotify.com/v1/artists/61if35zz1W11GejEkxTLEQ","id":"61if35zz1W11GejEkxTLEQ","images":[{"height":640,"url":"https://i.scdn.co/image/ab6761610000e5ebbbbde5038f6dd11a9bea4cd8","width":640},{"height":320,"url":"https://i.scdn.co/image/ab67616100005174bbbde5038f6dd11a9bea4cd8","width":320},{"height":160,"url":"https://i.scdn.co/image/ab6761610000f178bbbde5038f6dd11a9bea4cd8","width":160}],"name":"Benny Dayal","popularity":71,"type":"artist","uri":"spotify:artist:61if35zz1W11GejEkxTLEQ"},{"external_urls":{"spotify":"https://open.spotify.com/artist/6KImCVD70vtIoJWnq6nGn3"},"followers":{"href":null,"total":25845774},"genres":["pop"],"href":"https://api.spotify.com/v1/artists/6KImCVD70vtIoJWnq6nGn3","id":"6KImCVD70vtIoJWnq6nGn3","images":[{"height":640,"url":"https://i.scdn.co/image/ab6761610000e5ebf7db7c8ede90a019c54590bb","width":640},{"height":320,"url":"https://i.scdn.co/image/ab67616100005174f7db7c8ede90a019c54590bb","width":320},{"height":160,"url":"https://i.scdn.co/image/ab6761610000f178f7db7c8ede90a019c54590bb","width":160}],"name":"Harry Styles","popularity":91,"type":"artist","uri":"spotify:artist:6KImCVD70vtIoJWnq6nGn3"},{"external_urls":{"spotify":"https://open.spotify.com/artist/6P5NO5hzJbuOqSdyPB7SJM"},"followers":{"href":null,"total":1325381},"genres":["alt z","electropop","pop"],"href":"https://api.spotify.com/v1/artists/6P5NO5hzJbuOqSdyPB7SJM","id":"6P5NO5hzJbuOqSdyPB7SJM","images":[{"height":640,"url":"https://i.scdn.co/image/ab6761610000e5eb6e2c026d1776ca2b30b328f5","width":640},{"height":320,"url":"https://i.scdn.co/image/ab676161000051746e2c026d1776ca2b30b328f5","width":320},{"height":160,"url":"https://i.scdn.co/image/ab6761610000f1786e2c026d1776ca2b30b328f5","width":160}],"name":"Ashe","popularity":72,"type":"artist","uri":"spotify:artist:6P5NO5hzJbuOqSdyPB7SJM"},{"external_urls":{"spotify":"https://open.spotify.com/artist/6qqNVTkY8uBg9cP3Jd7DAH"},"followers":{"href":null,"total":75909421},"genres":["art pop","electropop","pop"],"href":"https://api.spotify.com/v1/artists/6qqNVTkY8uBg9cP3Jd7DAH","id":"6qqNVTkY8uBg9cP3Jd7DAH","images":[{"height":640,"url":"https://i.scdn.co/image/ab6761610000e5ebd8b9980db67272cb4d2c3daf","width":640},{"height":320,"url":"https://i.scdn.co/image/ab67616100005174d8b9980db67272cb4d2c3daf","width":320},{"height":160,"url":"https://i.scdn.co/image/ab6761610000f178d8b9980db67272cb4d2c3daf","width":160}],"name":"Billie Eilish","popularity":90,"type":"artist","uri":"spotify:artist:6qqNVTkY8uBg9cP3Jd7DAH"}],"total":32,"limit":20,"offset":0,"href":"https://api.spotify.com/v1/me/top/artists","next":"https://api.spotify.com/v1/me/top/artists?limit=20&offset=20","previous":null}